<?xml version="1.0" encoding="utf-8"?>
<!-- Generator: Adobe Illustrator 15.0.0, SVG Export Plug-In . SVG Version: 6.00 Build 0)  -->
<!DOCTYPE svg PUBLIC "-//W3C//DTD SVG 1.1//EN" "http://www.w3.org/Graphics/SVG/1.1/DTD/svg11.dtd">
<svg version="1.1" id="Capa_1" xmlns="http://www.w3.org/2000/svg" xmlns:xlink="http://www.w3.org/1999/xlink" x="0px" y="0px"
	 width="24px" height="24px" viewBox="0 0 24 24" enable-background="new 0 0 24 24" xml:space="preserve">
<g>
	<g>
		<polygon fill="#23355B" points="20.917,10.113 11.931,16.521 2.945,10.113 0,8.013 0,21.743 23.862,21.743 23.862,8.013 		"/>
		<path fill="#23355B" d="M2.535,9.253l8.985,6.404c0.123,0.088,0.267,0.131,0.411,0.131s0.287-0.044,0.411-0.131l8.986-6.406
			c0.187-0.133,0.297-0.348,0.297-0.577V2.802c-0.002-0.391-0.317-0.708-0.708-0.708H2.945c-0.391,0-0.706,0.317-0.706,0.708v5.873
			C2.239,8.905,2.35,9.12,2.535,9.253z M3.652,3.508H20.21v4.804l-8.28,5.902L3.652,8.312V3.508z"/>
		<path fill="#23355B" d="M6.447,6.532h10.522c0.425,0,0.769-0.345,0.769-0.771c0-0.424-0.344-0.768-0.769-0.768H6.447
			c-0.424,0-0.768,0.343-0.768,0.768C5.679,6.187,6.022,6.532,6.447,6.532z"/>
		<path fill="#23355B" d="M17.737,8.432c0-0.423-0.344-0.767-0.769-0.767H6.447c-0.424,0-0.768,0.343-0.768,0.767
			c0,0.425,0.343,0.768,0.768,0.768h10.522C17.394,9.2,17.737,8.858,17.737,8.432z"/>
	</g>
</g>
</svg>
