<?xml version="1.0" encoding="utf-8"?>
<!-- Generator: Adobe Illustrator 15.0.0, SVG Export Plug-In . SVG Version: 6.00 Build 0)  -->
<!DOCTYPE svg PUBLIC "-//W3C//DTD SVG 1.1//EN" "http://www.w3.org/Graphics/SVG/1.1/DTD/svg11.dtd">
<svg version="1.1" id="Layer_1" xmlns="http://www.w3.org/2000/svg" xmlns:xlink="http://www.w3.org/1999/xlink" x="0px" y="0px"
	 width="16px" height="16px" viewBox="0 0 16 16" enable-background="new 0 0 16 16" xml:space="preserve">
<g>
	<path fill="#5A5B5B" d="M3.013,15.684c-0.735,0-1.425-0.304-1.944-0.852c-1.072-1.136-1.072-2.986,0-4.122L9.567,1.7
		c0.684-0.727,1.595-1.127,2.564-1.127s1.879,0.401,2.564,1.127c0.686,0.726,1.063,1.69,1.063,2.718
		c0,1.027-0.377,1.994-1.061,2.719l-6.692,7.092c-0.2,0.213-0.526,0.213-0.726,0c-0.201-0.216-0.201-0.557,0-0.772l6.688-7.09
		c0.49-0.52,0.762-1.212,0.762-1.948c0-0.735-0.271-1.428-0.762-1.948c-0.49-0.52-1.144-0.807-1.837-0.807
		c-0.695,0-1.347,0.287-1.837,0.807l-8.5,9.01c-0.671,0.71-0.671,1.868,0,2.58c0.651,0.688,1.783,0.688,2.433,0l5.708-6.05
		c0.154-0.164,0.242-0.393,0.242-0.624c0-0.234-0.086-0.458-0.243-0.625c-0.325-0.343-0.854-0.344-1.178,0l-3.897,4.133
		c-0.201,0.211-0.526,0.211-0.727,0c-0.201-0.215-0.201-0.559,0-0.771L8.031,5.99c0.725-0.769,1.905-0.769,2.631,0
		c0.352,0.375,0.545,0.869,0.545,1.395c0,0.519-0.197,1.026-0.545,1.395l-5.706,6.052C4.438,15.38,3.747,15.684,3.013,15.684z"/>
</g>
</svg>
