<?xml version="1.0" encoding="utf-8"?>
<!-- Generator: Adobe Illustrator 15.0.0, SVG Export Plug-In . SVG Version: 6.00 Build 0)  -->
<!DOCTYPE svg PUBLIC "-//W3C//DTD SVG 1.1//EN" "http://www.w3.org/Graphics/SVG/1.1/DTD/svg11.dtd">
<svg version="1.1" id="Layer_1" xmlns="http://www.w3.org/2000/svg" xmlns:xlink="http://www.w3.org/1999/xlink" x="0px" y="0px"
	 width="20px" height="20px" viewBox="0 0 20 20" enable-background="new 0 0 20 20" xml:space="preserve">
<g>
	<g>
		<path fill="#ADADAD" d="M19.216,6.343c-1.036-2.418-2.8-4.176-5.237-5.216c-1.219-0.52-2.494-0.785-3.828-0.785
			c-1.334,0-2.602,0.263-3.818,0.785C3.915,2.164,2.144,3.921,1.105,6.343c-0.52,1.213-0.774,2.484-0.774,3.817
			c0,1.334,0.254,2.615,0.774,3.829c1.039,2.421,2.809,4.188,5.227,5.227C7.55,19.736,8.816,20,10.15,20
			c1.333,0,2.609-0.266,3.829-0.784c2.438-1.04,4.199-2.81,5.236-5.227C19.736,12.771,20,11.494,20,10.16
			C20,8.827,19.738,7.561,19.216,6.343z M17.646,14.505c-0.771,1.324-1.83,2.374-3.162,3.151c-1.323,0.771-2.774,1.16-4.333,1.16
			c-1.173,0-2.291-0.226-3.355-0.688c-1.065-0.462-1.984-1.07-2.753-1.839s-1.381-1.697-1.839-2.765
			c-0.457-1.063-0.678-2.192-0.678-3.365c0-1.56,0.383-3.003,1.151-4.323c0.769-1.325,1.827-2.377,3.15-3.151
			c1.323-0.774,2.764-1.162,4.324-1.162c1.559,0,3.01,0.39,4.333,1.162c1.332,0.776,2.388,1.829,3.162,3.151
			c0.773,1.323,1.16,2.764,1.16,4.323C18.807,11.719,18.423,13.173,17.646,14.505z"/>
		<path fill="#ADADAD" d="M10.773,10.074V4.503c0-0.333-0.291-0.602-0.624-0.602c-0.313,0-0.593,0.269-0.593,0.602v5.657
			c0,0.011,0.022,0.054,0.022,0.086C9.557,10.44,9.611,10.6,9.74,10.73l3.216,3.215c0.215,0.216,0.612,0.216,0.828,0
			c0.247-0.247,0.229-0.605,0-0.84L10.773,10.074z"/>
	</g>
</g>
</svg>
