<?xml version="1.0" encoding="utf-8"?>
<!-- Generator: Adobe Illustrator 15.0.0, SVG Export Plug-In . SVG Version: 6.00 Build 0)  -->
<!DOCTYPE svg PUBLIC "-//W3C//DTD SVG 1.1//EN" "http://www.w3.org/Graphics/SVG/1.1/DTD/svg11.dtd">
<svg version="1.1" id="Layer_1" xmlns="http://www.w3.org/2000/svg" xmlns:xlink="http://www.w3.org/1999/xlink" x="0px" y="0px"
	 width="20px" height="20px" viewBox="0 0 20 20" enable-background="new 0 0 20 20" xml:space="preserve">
<g>
	<path fill="#FFFFFF" d="M10.886,18.8l5.321-5.321c0.325-0.325,0.325-0.852,0-1.176c-0.325-0.325-0.852-0.325-1.176,0l-3.901,3.901
		V1.993c0-0.459-0.371-0.831-0.833-0.831c-0.458,0-0.831,0.372-0.831,0.831v14.211l-3.901-3.901c-0.324-0.325-0.851-0.325-1.176,0
		c-0.162,0.162-0.243,0.375-0.243,0.588c0,0.214,0.081,0.426,0.243,0.588L9.71,18.8C10.034,19.124,10.561,19.124,10.886,18.8z"/>
</g>
</svg>
