<?xml version="1.0" encoding="utf-8"?>
<!-- Generator: Adobe Illustrator 15.0.0, SVG Export Plug-In . SVG Version: 6.00 Build 0)  -->
<!DOCTYPE svg PUBLIC "-//W3C//DTD SVG 1.1//EN" "http://www.w3.org/Graphics/SVG/1.1/DTD/svg11.dtd">
<svg version="1.1" id="Layer_1" xmlns="http://www.w3.org/2000/svg" xmlns:xlink="http://www.w3.org/1999/xlink" x="0px" y="0px"
	 width="20px" height="20px" viewBox="0 0 20 20" enable-background="new 0 0 20 20" xml:space="preserve">
<g>
	<g id="Padlock">
		<g>
			<path fill="#ADADAD" d="M15.192,8.732V4.991c0-2.752-2.239-4.991-4.99-4.991s-4.99,2.239-4.99,4.991v3.743
				c-1.032,0-1.872,0.839-1.872,1.871v7.484c0,1.032,0.84,1.872,1.872,1.872h9.98c1.031,0,1.871-0.84,1.871-1.872v-7.484
				C17.063,9.573,16.226,8.732,15.192,8.732z M6.459,4.991c0-2.064,1.68-3.743,3.744-3.743c2.063,0,3.743,1.678,3.743,3.743v3.743
				H6.459V4.991z M15.815,18.09c0,0.346-0.278,0.624-0.623,0.624h-9.98c-0.344,0-0.624-0.278-0.624-0.624v-7.484
				c0-0.345,0.28-0.623,0.624-0.623h9.98c0.345,0,0.623,0.278,0.623,0.623V18.09z M10.826,13.896v-1.42
				c0-0.347-0.28-0.625-0.624-0.625c-0.345,0-0.624,0.278-0.624,0.625v1.42c-0.372,0.215-0.624,0.612-0.624,1.074
				c0,0.688,0.56,1.247,1.248,1.247c0.688,0,1.247-0.559,1.247-1.247C11.449,14.511,11.197,14.111,10.826,13.896z"/>
		</g>
	</g>
</g>
</svg>
