<?xml version="1.0" encoding="utf-8"?>
<!-- Generator: Adobe Illustrator 15.0.0, SVG Export Plug-In . SVG Version: 6.00 Build 0)  -->
<!DOCTYPE svg PUBLIC "-//W3C//DTD SVG 1.1//EN" "http://www.w3.org/Graphics/SVG/1.1/DTD/svg11.dtd">
<svg version="1.1" id="Layer_1" xmlns="http://www.w3.org/2000/svg" xmlns:xlink="http://www.w3.org/1999/xlink" x="0px" y="0px"
	 width="20px" height="20px" viewBox="0 0 20 20" enable-background="new 0 0 20 20" xml:space="preserve">
<g>
	<g>
		<path fill="#ADADAD" d="M13.091,12.803c1.138-1.229,1.845-2.877,1.845-4.691c0-3.805-3.096-6.911-6.911-6.911
			S1.113,4.307,1.113,8.112c0,3.804,3.096,6.912,6.911,6.912c1.554,0,2.981-0.512,4.139-1.377l5.14,5.142
			c0.125,0.125,0.281,0.188,0.438,0.188s0.323-0.063,0.438-0.188c0.239-0.24,0.239-0.638,0-0.888L13.091,12.803z M2.364,8.112
			c0-3.117,2.533-5.661,5.66-5.661c3.117,0,5.662,2.533,5.662,5.661c0,3.126-2.535,5.66-5.662,5.66
			C4.897,13.771,2.364,11.229,2.364,8.112z"/>
	</g>
</g>
</svg>
