<?xml version="1.0" encoding="utf-8"?>
<!-- Generator: Adobe Illustrator 15.0.0, SVG Export Plug-In . SVG Version: 6.00 Build 0)  -->
<!DOCTYPE svg PUBLIC "-//W3C//DTD SVG 1.1//EN" "http://www.w3.org/Graphics/SVG/1.1/DTD/svg11.dtd">
<svg version="1.1" id="Layer_1" xmlns="http://www.w3.org/2000/svg" xmlns:xlink="http://www.w3.org/1999/xlink" x="0px" y="0px"
	 width="20px" height="20px" viewBox="0 0 20 20" enable-background="new 0 0 20 20" xml:space="preserve">
<g>
	<g id="Padlock">
		<g>
			<path fill="#FFFFFF" d="M15.193,8.733V4.991c0-2.752-2.239-4.991-4.99-4.991C7.452,0,5.213,2.239,5.213,4.991v3.743
				c-1.032,0-1.872,0.839-1.872,1.871v7.485c0,1.032,0.84,1.872,1.872,1.872h9.98c1.032,0,1.872-0.84,1.872-1.872v-7.485
				C17.065,9.573,16.226,8.733,15.193,8.733z M6.46,4.991c0-2.064,1.679-3.743,3.744-3.743c2.064,0,3.743,1.678,3.743,3.743v3.743
				H6.46V4.991z M15.817,18.09c0,0.345-0.279,0.624-0.624,0.624h-9.98c-0.344,0-0.624-0.279-0.624-0.624v-7.485
				c0-0.344,0.28-0.623,0.624-0.623h9.98c0.345,0,0.624,0.279,0.624,0.623V18.09z M10.827,13.897v-1.421
				c0-0.346-0.28-0.624-0.624-0.624c-0.345,0-0.624,0.278-0.624,0.624v1.421c-0.372,0.215-0.624,0.612-0.624,1.074
				c0,0.688,0.559,1.247,1.248,1.247c0.688,0,1.247-0.559,1.247-1.247C11.45,14.511,11.198,14.112,10.827,13.897z"/>
		</g>
	</g>
</g>
</svg>
