<?xml version="1.0" encoding="utf-8"?>
<!-- Generator: Adobe Illustrator 15.0.0, SVG Export Plug-In . SVG Version: 6.00 Build 0)  -->
<!DOCTYPE svg PUBLIC "-//W3C//DTD SVG 1.1//EN" "http://www.w3.org/Graphics/SVG/1.1/DTD/svg11.dtd">
<svg version="1.1" id="Layer_1" xmlns="http://www.w3.org/2000/svg" xmlns:xlink="http://www.w3.org/1999/xlink" x="0px" y="0px"
	 width="20px" height="20px" viewBox="0 0 20 20" enable-background="new 0 0 20 20" xml:space="preserve">
<g>
	<path fill="#FFFFFF" d="M10.803,16.444c-0.361,0-0.656,0.295-0.656,0.656s0.295,0.657,0.656,0.657h6.018
		c0.361,0,0.656-0.296,0.656-0.657V6.652c0-0.186-0.076-0.361-0.207-0.481L12.346,1.63c-0.121-0.109-0.285-0.175-0.448-0.175H4.566
		c-0.361,0-0.656,0.295-0.656,0.657v7.111c0,0.361,0.295,0.657,0.656,0.657c0.361,0,0.657-0.296,0.657-0.657V2.768h5.251v5.689
		c0,0.361,0.295,0.656,0.656,0.656h4.924c0.033,0,0.077,0,0.109-0.011v7.341H10.803L10.803,16.444z M16.055,7.801h-4.268V2.899
		l4.377,4.038v0.875C16.132,7.801,16.088,7.801,16.055,7.801z M1.284,15.46c0-0.361,0.295-0.656,0.657-0.656H3.91v-2.079
		c0-0.361,0.295-0.656,0.656-0.656c0.361,0,0.657,0.295,0.657,0.656v2.079h2.188c0.361,0,0.656,0.295,0.656,0.656
		c0,0.36-0.295,0.656-0.656,0.656H5.223v2.079c0,0.361-0.295,0.656-0.657,0.656c-0.361,0-0.656-0.295-0.656-0.656v-2.079H1.941
		C1.58,16.116,1.284,15.82,1.284,15.46z"/>
</g>
</svg>
