<?xml version="1.0" encoding="utf-8"?>
<!-- Generator: Adobe Illustrator 15.0.0, SVG Export Plug-In . SVG Version: 6.00 Build 0)  -->
<!DOCTYPE svg PUBLIC "-//W3C//DTD SVG 1.1//EN" "http://www.w3.org/Graphics/SVG/1.1/DTD/svg11.dtd">
<svg version="1.1" id="Layer_1" xmlns="http://www.w3.org/2000/svg" xmlns:xlink="http://www.w3.org/1999/xlink" x="0px" y="0px"
	 width="20px" height="20px" viewBox="0 0 20 20" enable-background="new 0 0 20 20" xml:space="preserve">
<g>
	<path fill="#FFFFFF" d="M18.398,5.83V3.386c0-0.133-0.106-0.241-0.238-0.241H1.836c-0.131,0-0.238,0.107-0.238,0.241v3.15
		c0,0.017,0.002,0.033,0.005,0.049v10.271h16.799V5.83H18.398z M17.801,16.254H2.205V6.777h15.596V16.254z M8.43,13.129
		l-3.173-1.635v-0.369L8.43,9.491v0.472l-2.674,1.34v0.014l2.674,1.343V13.129z M14.77,11.502l-3.174,1.627v-0.471l2.694-1.342
		v-0.014l-2.694-1.34V9.492l3.174,1.627V11.502L14.77,11.502z M9.089,14.264H8.562l2.196-5.708h0.535L9.089,14.264z"/>
</g>
</svg>
