<?xml version="1.0" encoding="utf-8"?>
<!-- Generator: Adobe Illustrator 15.0.0, SVG Export Plug-In . SVG Version: 6.00 Build 0)  -->
<!DOCTYPE svg PUBLIC "-//W3C//DTD SVG 1.1//EN" "http://www.w3.org/Graphics/SVG/1.1/DTD/svg11.dtd">
<svg version="1.1" id="Capa_1" xmlns="http://www.w3.org/2000/svg" xmlns:xlink="http://www.w3.org/1999/xlink" x="0px" y="0px"
	 width="24px" height="24px" viewBox="0 0 24 24" enable-background="new 0 0 24 24" xml:space="preserve">
<path fill="#FFFFFF" d="M15.505,17.214h2.371l-2.563,2.735v-2.541C15.313,17.302,15.398,17.214,15.505,17.214z M14.369,21.611H5.166
	c-0.26,0-0.471-0.211-0.471-0.471V2.859c0-0.26,0.211-0.471,0.471-0.471h13.668c0.262,0,0.471,0.211,0.471,0.471v13.413h-3.8
	c-0.625,0-1.136,0.512-1.136,1.139V21.611L14.369,21.611z M6.936,5.121c0,0.26,0.211,0.471,0.472,0.471h8.244
	c0.261,0,0.471-0.211,0.471-0.471c0-0.26-0.21-0.471-0.471-0.471H7.407C7.146,4.649,6.936,4.86,6.936,5.121z M6.936,7.995
	c0,0.26,0.211,0.471,0.472,0.471h8.244c0.261,0,0.471-0.211,0.471-0.471c0-0.26-0.21-0.471-0.471-0.471H7.407
	C7.146,7.523,6.936,7.735,6.936,7.995z M6.936,10.869c0,0.26,0.211,0.471,0.472,0.471h6.775c0.26,0,0.471-0.211,0.471-0.471
	c0-0.261-0.211-0.472-0.471-0.472H7.407C7.146,10.397,6.936,10.608,6.936,10.869z M7.407,14.215h9.388
	c0.26,0,0.473-0.211,0.473-0.472s-0.213-0.472-0.473-0.472H7.407c-0.261,0-0.472,0.211-0.472,0.472S7.146,14.215,7.407,14.215z"/>
</svg>
