<?xml version="1.0" encoding="utf-8"?>
<!-- Generator: Adobe Illustrator 15.0.0, SVG Export Plug-In . SVG Version: 6.00 Build 0)  -->
<!DOCTYPE svg PUBLIC "-//W3C//DTD SVG 1.1//EN" "http://www.w3.org/Graphics/SVG/1.1/DTD/svg11.dtd">
<svg version="1.1" id="Capa_1" xmlns="http://www.w3.org/2000/svg" xmlns:xlink="http://www.w3.org/1999/xlink" x="0px" y="0px"
	 width="24px" height="24px" viewBox="0 0 24 24" enable-background="new 0 0 24 24" xml:space="preserve">
<g>
	<g>
		<path fill="#ADADAD" d="M23.346,0.701c-0.32-0.313-0.718-0.483-1.171-0.483H6.872c-0.937,0-1.694,0.718-1.694,1.654v3.225h1.557
			V1.872c0-0.096,0.042-0.138,0.137-0.138h15.303c0.097,0,0.138,0.042,0.138,0.138v11.015c0,0.098-0.041,0.139-0.138,0.139h-2.083
			v1.529h2.083c0.453,0,0.851-0.169,1.171-0.482c0.326-0.321,0.495-0.717,0.495-1.186V1.872C23.841,1.403,23.672,1.021,23.346,0.701
			z"/>
		<path fill="#ADADAD" d="M17.32,6.711H2.02c-0.469,0-0.868,0.165-1.186,0.496c-0.317,0.33-0.482,0.731-0.482,1.2v11
			c0,0.456,0.162,0.856,0.482,1.186c0.314,0.32,0.717,0.482,1.186,0.482h6.919l5.183,2.881v-2.881h3.198
			c0.471,0,0.871-0.162,1.187-0.482c0.321-0.327,0.481-0.729,0.481-1.186v-11c0-0.469-0.164-0.87-0.481-1.2
			C18.191,6.875,17.791,6.711,17.32,6.711z M17.46,19.406c0,0.096-0.041,0.138-0.14,0.138h-3.198h-1.515v1.53v0.289l-2.909-1.641
			l-0.345-0.18H8.939H2.021c-0.097,0-0.138-0.042-0.138-0.139v-11c0-0.125,0.041-0.179,0.138-0.179H17.32
			c0.1,0,0.141,0.055,0.141,0.179L17.46,19.406L17.46,19.406z"/>
		<path fill="#ADADAD" d="M14.384,14.829H8.885c-0.427,0-0.772,0.346-0.772,0.772c0,0.426,0.345,0.758,0.772,0.758h5.499
			c0.431,0,0.761-0.332,0.761-0.758C15.145,15.174,14.813,14.829,14.384,14.829z"/>
		<path fill="#ADADAD" d="M14.384,11.453H4.957c-0.427,0-0.758,0.331-0.758,0.758c0,0.426,0.331,0.757,0.758,0.757h9.427
			c0.431,0,0.761-0.331,0.761-0.757C15.145,11.784,14.813,11.453,14.384,11.453z"/>
	</g>
</g>
</svg>
