<?xml version="1.0" encoding="utf-8"?>
<!-- Generator: Adobe Illustrator 15.0.0, SVG Export Plug-In . SVG Version: 6.00 Build 0)  -->
<!DOCTYPE svg PUBLIC "-//W3C//DTD SVG 1.1//EN" "http://www.w3.org/Graphics/SVG/1.1/DTD/svg11.dtd">
<svg version="1.1" id="Capa_1" xmlns="http://www.w3.org/2000/svg" xmlns:xlink="http://www.w3.org/1999/xlink" x="0px" y="0px"
	 width="24px" height="24px" viewBox="0 0 24 24" enable-background="new 0 0 24 24" xml:space="preserve">
<g>
	<g>
		<path fill="#FFFFFF" d="M22.988,21.671c0,0-0.043-4.162-0.299-4.593c-0.377-0.643-1.258-1.084-2.896-1.768
			c-1.63-0.683-2.149-1.256-2.149-2.486c0-0.74,0.498-0.498,0.717-1.851c0.091-0.562,0.531-0.01,0.615-1.291
			c0-0.51-0.24-0.638-0.24-0.638s0.121-0.755,0.168-1.337c0.061-0.725-0.364-2.597-2.627-2.597c-2.262,0-2.688,1.872-2.627,2.597
			c0.047,0.582,0.17,1.337,0.17,1.337s-0.239,0.127-0.239,0.638c0.084,1.281,0.522,0.729,0.612,1.291
			c0.22,1.353,0.718,1.111,0.718,1.851c0,0.836-0.242,1.369-0.909,1.84c3.561,1.781,4.038,2.146,4.038,3.738v3.269H22.988z
			 M12.244,15.93c-2.173-0.908-2.867-1.676-2.867-3.314c0-0.985,0.664-0.663,0.955-2.467c0.12-0.748,0.707-0.012,0.818-1.721
			c0-0.681-0.318-0.85-0.318-0.85s0.162-1.008,0.225-1.783C11.136,4.826,10.57,2.33,7.554,2.33c-3.016,0-3.582,2.496-3.503,3.462
			c0.064,0.775,0.226,1.783,0.226,1.783s-0.32,0.169-0.32,0.85c0.113,1.708,0.699,0.973,0.82,1.721
			c0.292,1.804,0.955,1.482,0.955,2.467c0,1.641-0.695,2.408-2.869,3.316c-0.661,0.274-1.852,0.703-1.852,1.734v4.005h15.266
			c0,0,0-2.369,0-3.003C16.277,17.729,14.425,16.841,12.244,15.93z"/>
	</g>
</g>
</svg>
