<?xml version="1.0" encoding="utf-8"?>
<!-- Generated by IcoMoon.io -->
<!DOCTYPE svg PUBLIC "-//W3C//DTD SVG 1.1//EN" "http://www.w3.org/Graphics/SVG/1.1/DTD/svg11.dtd">
<svg version="1.1" xmlns="http://www.w3.org/2000/svg" xmlns:xlink="http://www.w3.org/1999/xlink" width="50" height="50" viewBox="0 0 50 50">
<path fill="#e1e1e1" d="M14.844 29.688c0 5.609 4.547 10.156 10.156 10.156s10.156-4.547 10.156-10.156-4.547-10.156-10.156-10.156-10.156 4.547-10.156 10.156zM46.875 12.5h-10.938c-0.781-3.125-1.563-6.25-4.688-6.25h-12.5c-3.125 0-3.906 3.125-4.688 6.25h-10.938c-1.719 0-3.125 1.406-3.125 3.125v28.125c0 1.719 1.406 3.125 3.125 3.125h43.75c1.719 0 3.125-1.406 3.125-3.125v-28.125c0-1.719-1.406-3.125-3.125-3.125zM25 43.555c-7.659 0-13.867-6.208-13.867-13.867s6.208-13.867 13.867-13.867c7.659 0 13.867 6.208 13.867 13.867s-6.208 13.867-13.867 13.867zM46.875 21.875h-6.25v-3.125h6.25v3.125z"></path>
</svg>
