<?xml version="1.0" encoding="utf-8"?>
<!-- Generator: Adobe Illustrator 15.0.0, SVG Export Plug-In . SVG Version: 6.00 Build 0)  -->
<!DOCTYPE svg PUBLIC "-//W3C//DTD SVG 1.1//EN" "http://www.w3.org/Graphics/SVG/1.1/DTD/svg11.dtd">
<svg version="1.1" id="Layer_1" xmlns="http://www.w3.org/2000/svg" xmlns:xlink="http://www.w3.org/1999/xlink" x="0px" y="0px"
	 width="45px" height="45px" viewBox="0 0 45 45" enable-background="new 0 0 45 45" xml:space="preserve">
<g>
	<g>
		<g>
			<path fill="#FFFFFF" d="M22.703,22.517c0,0.134-0.114,0.245-0.249,0.245c-0.136,0-0.249-0.111-0.249-0.245
				c0-0.139,0.113-0.25,0.249-0.25C22.588,22.267,22.703,22.378,22.703,22.517z"/>
			<path fill="#FFFFFF" d="M15.509,16.914c1.068,0.351,1.715,1.317,1.438,2.153c-0.276,0.835-1.368,1.23-2.439,0.879
				c-1.065-0.351-1.712-1.318-1.436-2.153c0.108-0.34,0.357-0.613,0.717-0.795C14.286,16.748,14.913,16.718,15.509,16.914
				L15.509,16.914z M22.386,23.582c0.76,0.313,4.445,1.863,7.026,2.584c2.943,0.814,3.41,0.648,3.438,0.389l-10.462-5.103
				c-2.265-1.058-2.406-0.606-3.313-1.712c-0.576-0.701-1.128-1.714-1.519-2.227c-0.354-0.626-0.978-1.156-1.772-1.418
				c-0.815-0.267-1.685-0.22-2.379,0.131c-0.56,0.284-0.967,0.746-1.146,1.298c-0.424,1.286,0.502,2.641,1.988,3.24
				c0.944,0.381,3.558,0.148,4.478,0.395c0.623,0.169,1.405,0.795,2.072,1.358C21.21,22.897,21.621,23.27,22.386,23.582z"/>
			<path fill="#FFFFFF" d="M13.794,28.002c-0.36-0.182-0.609-0.455-0.721-0.795c-0.273-0.834,0.371-1.803,1.439-2.152
				c1.068-0.35,2.159,0.041,2.436,0.875c0.276,0.836-0.371,1.803-1.435,2.156C14.913,28.281,14.286,28.256,13.794,28.002
				L13.794,28.002z M20.795,22.482c-0.667,0.563-1.452,1.189-2.075,1.355c-0.923,0.246-3.531,0.015-4.478,0.396
				c-1.482,0.6-2.412,1.953-1.991,3.242c0.182,0.555,0.589,1.016,1.152,1.301c0.694,0.35,1.561,0.396,2.372,0.133
				c0.802-0.266,1.425-0.795,1.776-1.422c0.395-0.508,0.946-1.521,1.519-2.228c0.91-1.104,1.048-0.649,3.309-1.712l10.471-5.102
				c-0.027-0.26-0.494-0.424-3.438,0.391c-2.581,0.715-6.267,2.269-7.026,2.582C21.621,21.732,21.21,22.103,20.795,22.482z"/>
		</g>
	</g>
</g>
</svg>
