<?xml version="1.0" encoding="utf-8"?>
<!-- Generator: Adobe Illustrator 15.0.0, SVG Export Plug-In . SVG Version: 6.00 Build 0)  -->
<!DOCTYPE svg PUBLIC "-//W3C//DTD SVG 1.1//EN" "http://www.w3.org/Graphics/SVG/1.1/DTD/svg11.dtd">
<svg version="1.1" id="Layer_1" xmlns="http://www.w3.org/2000/svg" xmlns:xlink="http://www.w3.org/1999/xlink" x="0px" y="0px"
	 width="20px" height="20px" viewBox="0 0 20 20" enable-background="new 0 0 20 20" xml:space="preserve">
<g>
	<path fill="#FFFFFF" d="M9.962,14.288c-0.131,0-0.263-0.051-0.363-0.151l-3.196-3.195c-0.201-0.201-0.201-0.526,0-0.728
		c0.201-0.201,0.526-0.201,0.727,0l2.318,2.318V1.659c0-0.284,0.23-0.514,0.514-0.514s0.515,0.23,0.515,0.514v10.835l2.321-2.283
		c0.202-0.198,0.526-0.197,0.726,0.005c0.199,0.201,0.199,0.524-0.001,0.726l-3.196,3.195C10.226,14.237,10.094,14.288,9.962,14.288
		z"/>
	<path fill="#FFFFFF" d="M9.972,18.627c-4.181,0-7.583-3.402-7.583-7.583c0-3.309,2.116-6.211,5.265-7.221
		c0.27-0.087,0.56,0.062,0.646,0.332c0.086,0.271-0.062,0.56-0.333,0.647c-2.722,0.873-4.55,3.381-4.55,6.242
		c0,3.614,2.94,6.555,6.554,6.555c3.614,0,6.554-2.94,6.554-6.555c0-2.861-1.828-5.369-4.55-6.242
		c-0.271-0.087-0.419-0.376-0.333-0.647c0.087-0.27,0.376-0.419,0.647-0.332c3.148,1.01,5.264,3.912,5.264,7.221
		C17.554,15.225,14.152,18.627,9.972,18.627z"/>
</g>
</svg>
