<?xml version="1.0" encoding="utf-8"?>
<!-- Generator: Adobe Illustrator 15.0.0, SVG Export Plug-In . SVG Version: 6.00 Build 0)  -->
<!DOCTYPE svg PUBLIC "-//W3C//DTD SVG 1.1//EN" "http://www.w3.org/Graphics/SVG/1.1/DTD/svg11.dtd">
<svg version="1.1" id="Layer_1" xmlns="http://www.w3.org/2000/svg" xmlns:xlink="http://www.w3.org/1999/xlink" x="0px" y="0px"
	 width="20px" height="20px" viewBox="0 0 20 20" enable-background="new 0 0 20 20" xml:space="preserve">
<g>
	<g>
		<g>
			<g>
				<g>
					<path fill="#3F5664" d="M11.008,16.241h-1.3c-0.196,0-0.264,0-0.931-1.652l-0.515-0.21c-1.403,0.638-1.569,0.638-1.625,0.638
						H6.53l-0.092-0.079l-0.922-0.902c-0.14-0.14-0.189-0.188,0.532-1.819l-0.21-0.495c-1.694-0.607-1.694-0.679-1.694-0.878V9.567
						c0-0.2,0-0.263,1.688-0.916l0.21-0.498c-0.763-1.605-0.71-1.656-0.56-1.797l0.991-0.972l0.124-0.004
						c0.149,0,0.705,0.202,1.652,0.602l0.513-0.208c0.619-1.659,0.694-1.658,0.889-1.658h1.3c0.195,0,0.265,0,0.931,1.653
						l0.516,0.208c1.401-0.636,1.569-0.636,1.625-0.636h0.106l0.092,0.078l0.922,0.9c0.141,0.142,0.188,0.189-0.533,1.821l0.211,0.5
						c1.696,0.604,1.696,0.675,1.696,0.875v1.274c0,0.194,0,0.265-1.69,0.917l-0.209,0.499c0.759,1.599,0.709,1.647,0.566,1.792
						l-0.998,0.978l-0.124,0.004c-0.149,0-0.703-0.203-1.649-0.604l-0.516,0.21C11.277,16.241,11.207,16.241,11.008,16.241z
						 M9.842,15.715h1.026c0.118-0.24,0.372-0.876,0.576-1.426l0.04-0.107l0.936-0.377l0.1,0.042
						c0.557,0.237,1.215,0.501,1.472,0.581l0.72-0.706c-0.091-0.254-0.369-0.874-0.619-1.397l-0.05-0.106l0.386-0.923l0.105-0.04
						c0.562-0.218,1.214-0.483,1.457-0.605V9.658c-0.246-0.116-0.896-0.363-1.454-0.561l-0.109-0.04l-0.39-0.923l0.047-0.104
						c0.239-0.54,0.506-1.177,0.591-1.434L13.952,5.89c-0.233,0.082-0.887,0.362-1.438,0.613L12.412,6.55l-0.935-0.376L11.437,6.07
						c-0.221-0.551-0.495-1.189-0.619-1.426H9.792C9.674,4.883,9.42,5.519,9.217,6.067l-0.04,0.108L8.246,6.554L8.145,6.511
						c-0.558-0.237-1.217-0.5-1.475-0.58L5.951,6.636C6.041,6.89,6.32,7.51,6.569,8.034L6.62,8.141L6.231,9.063L6.127,9.103
						C5.566,9.319,4.915,9.586,4.672,9.708v0.992c0.246,0.116,0.895,0.364,1.453,0.563l0.109,0.039l0.39,0.921l-0.046,0.104
						c-0.24,0.54-0.506,1.176-0.591,1.431l0.724,0.709c0.233-0.082,0.885-0.362,1.437-0.613l0.103-0.047l0.932,0.379l0.042,0.104
						C9.445,14.84,9.719,15.478,9.842,15.715z M10.331,12.3c-1.192,0-2.164-0.95-2.164-2.122c0-1.169,0.971-2.12,2.164-2.12
						c1.191,0,2.161,0.951,2.161,2.12C12.492,11.35,11.522,12.3,10.331,12.3z M10.331,8.585c-0.903,0-1.637,0.715-1.637,1.593
						c0,0.879,0.734,1.595,1.637,1.595c0.901,0,1.635-0.716,1.635-1.595C11.966,9.3,11.232,8.585,10.331,8.585z"/>
				</g>
			</g>
		</g>
	</g>
</g>
</svg>
