<?xml version="1.0" encoding="utf-8"?>
<!-- Generator: Adobe Illustrator 15.0.0, SVG Export Plug-In . SVG Version: 6.00 Build 0)  -->
<!DOCTYPE svg PUBLIC "-//W3C//DTD SVG 1.1//EN" "http://www.w3.org/Graphics/SVG/1.1/DTD/svg11.dtd">
<svg version="1.1" id="Layer_1" xmlns="http://www.w3.org/2000/svg" xmlns:xlink="http://www.w3.org/1999/xlink" x="0px" y="0px"
	 width="20px" height="20px" viewBox="0 0 20 20" enable-background="new 0 0 20 20" xml:space="preserve">
<g>
	<g>
		<path fill="#ADADAD" d="M18.693,1.307H1.307v17.386h17.386V1.307z M6.008,15.764c-0.925,0-1.676-0.75-1.676-1.676
			s0.75-1.676,1.676-1.676c0.925,0,1.675,0.75,1.675,1.676S6.934,15.764,6.008,15.764z M10.314,15.764
			c0-3.299-2.684-5.98-5.982-5.98v-1.53c4.141,0,7.51,3.37,7.51,7.509h-1.528V15.764z M14.645,15.764
			c0-5.686-4.625-10.312-10.312-10.312V3.924c6.528,0,11.839,5.311,11.839,11.84H14.645z"/>
	</g>
</g>
</svg>
