<?xml version="1.0" encoding="utf-8"?>
<!-- Generator: Adobe Illustrator 15.0.0, SVG Export Plug-In . SVG Version: 6.00 Build 0)  -->
<!DOCTYPE svg PUBLIC "-//W3C//DTD SVG 1.1//EN" "http://www.w3.org/Graphics/SVG/1.1/DTD/svg11.dtd">
<svg version="1.1" id="Layer_1" xmlns="http://www.w3.org/2000/svg" xmlns:xlink="http://www.w3.org/1999/xlink" x="0px" y="0px"
	 width="16px" height="16px" viewBox="0 0 16 16" enable-background="new 0 0 16 16" xml:space="preserve">
<g>
	<g>
		<path fill="#5890FF" d="M15.504,8.649C15.835,8.271,16,7.822,16,7.304c0-0.47-0.172-0.876-0.515-1.219S14.736,5.57,14.267,5.57
			h-2.501c0.024-0.083,0.049-0.155,0.072-0.216c0.023-0.061,0.058-0.126,0.1-0.199c0.042-0.072,0.071-0.127,0.09-0.163
			c0.108-0.204,0.191-0.373,0.249-0.504c0.057-0.132,0.113-0.313,0.171-0.542c0.058-0.229,0.086-0.457,0.086-0.686
			c0-0.145-0.002-0.262-0.005-0.352c-0.003-0.09-0.019-0.226-0.045-0.407c-0.027-0.18-0.063-0.331-0.108-0.451
			c-0.045-0.12-0.118-0.256-0.217-0.406c-0.1-0.151-0.22-0.272-0.361-0.366s-0.321-0.171-0.542-0.234
			c-0.22-0.063-0.468-0.095-0.745-0.095c-0.156,0-0.291,0.057-0.406,0.171C9.983,1.239,9.881,1.39,9.797,1.57
			S9.653,1.907,9.621,2.04C9.588,2.172,9.549,2.356,9.508,2.591C9.453,2.844,9.412,3.025,9.386,3.137
			C9.358,3.248,9.307,3.395,9.228,3.575C9.15,3.755,9.057,3.9,8.948,4.008c-0.2,0.199-0.502,0.56-0.913,1.083
			c-0.295,0.385-0.599,0.75-0.912,1.092C6.811,6.528,6.582,6.705,6.438,6.717c-0.15,0.012-0.28,0.074-0.388,0.185
			S5.887,7.145,5.887,7.295v5.789c0,0.156,0.057,0.289,0.171,0.4s0.25,0.17,0.406,0.176c0.211,0.008,0.686,0.139,1.427,0.398
			c0.463,0.156,0.826,0.275,1.088,0.355c0.261,0.082,0.627,0.17,1.097,0.264c0.47,0.092,0.902,0.139,1.3,0.139h0.154h0.686h0.325
			c0.801-0.012,1.394-0.246,1.778-0.703c0.35-0.416,0.497-0.961,0.443-1.635c0.234-0.223,0.397-0.506,0.487-0.85
			c0.103-0.367,0.103-0.719,0-1.057c0.276-0.365,0.406-0.779,0.388-1.236C15.639,9.143,15.594,8.914,15.504,8.649z"/>
		<path fill="#5890FF" d="M4.731,6.726h-2.6c-0.157,0-0.292,0.057-0.407,0.172s-0.171,0.25-0.171,0.406v5.78
			c0,0.156,0.057,0.291,0.171,0.406c0.114,0.113,0.25,0.172,0.407,0.172h2.6c0.157,0,0.292-0.059,0.407-0.172
			c0.114-0.115,0.171-0.25,0.171-0.406v-5.78c0-0.156-0.057-0.292-0.171-0.406C5.023,6.783,4.888,6.726,4.731,6.726z M3.693,12.338
			c-0.115,0.111-0.25,0.168-0.407,0.168c-0.163,0-0.299-0.057-0.411-0.168s-0.167-0.248-0.167-0.41c0-0.156,0.056-0.293,0.167-0.406
			c0.111-0.115,0.248-0.172,0.411-0.172c0.157,0,0.292,0.057,0.407,0.172c0.114,0.113,0.171,0.25,0.171,0.406
			C3.864,12.09,3.807,12.227,3.693,12.338z"/>
	</g>
</g>
</svg>
