<?xml version="1.0" encoding="utf-8"?>
<!-- Generator: Adobe Illustrator 15.0.0, SVG Export Plug-In . SVG Version: 6.00 Build 0)  -->
<!DOCTYPE svg PUBLIC "-//W3C//DTD SVG 1.1//EN" "http://www.w3.org/Graphics/SVG/1.1/DTD/svg11.dtd">
<svg version="1.1" id="Capa_1" xmlns="http://www.w3.org/2000/svg" xmlns:xlink="http://www.w3.org/1999/xlink" x="0px" y="0px"
	 width="24px" height="24px" viewBox="0 0 24 24" enable-background="new 0 0 24 24" xml:space="preserve">
<polygon fill="#787878" points="-20.046,13.973 -21.141,15.703 -25.5,15.703 -25.5,12.242 -21.141,12.242 "/>
<g>
	<g>
		<path fill="#787878" d="M22.552,4.529c-0.12-0.2-0.316-0.34-0.545-0.386L9.923,1.23C9.525,1.153,9.132,1.373,8.995,1.753
			L4.389,13.454l1.538,0.561l4.365-11.125L20.79,5.568c-0.655,2.033-2.216,6.275-3.712,10.227c-1.304,3.446-2.054,4.626-3.479,4.867
			c-0.003-0.001-0.004-0.004-0.004-0.006c-2.915,0.409-2.862-3.307-2.862-3.307l-9.309-3.761c-0.662,4.193,2.56,5.202,2.56,5.202
			l6.816,3.094c0.001,0.001,1.065,0.508,2.222,0.455c3.118-0.072,4.215-2.338,5.588-5.966c1.984-5.245,3.999-11.121,4.019-11.182
			C22.698,4.969,22.671,4.729,22.552,4.529z"/>
		<path fill="#787878" d="M17.044,9.248c0.071,0.02,0.145,0.03,0.218,0.03c0.357,0,0.687-0.24,0.787-0.602
			c0.12-0.437-0.139-0.887-0.574-1.006l-3.546-1.095c-0.432-0.119-0.887,0.137-1.006,0.573c-0.119,0.437,0.137,0.887,0.574,1.006
			L17.044,9.248z"/>
		<path fill="#787878" d="M11.502,10.426c-0.142,0.43,0.088,0.892,0.517,1.036l3.527,1.261c0.086,0.028,0.17,0.041,0.255,0.041
			c0.345,0.002,0.667-0.214,0.781-0.559c0.144-0.429-0.087-0.892-0.517-1.035l-3.527-1.259C12.108,9.768,11.646,9.999,11.502,10.426
			z"/>
		<path fill="#787878" d="M11.192,13.326c-0.429-0.144-0.893,0.091-1.033,0.521c-0.141,0.428,0.094,0.892,0.523,1.031l3.535,1.256
			c0.085,0.029,0.17,0.041,0.256,0.041c0.344,0,0.664-0.219,0.776-0.562c0.141-0.43-0.093-0.894-0.522-1.033L11.192,13.326z"/>
		<path fill="#787878" d="M11.061,5.621c0.501,0,0.908,0.396,0.908,0.883c0,0.487-0.406,0.882-0.908,0.882s-0.908-0.395-0.908-0.882
			C10.153,6.016,10.56,5.621,11.061,5.621z"/>
		<path fill="#787878" d="M9.777,8.9c0.501,0,0.908,0.395,0.908,0.882c0,0.487-0.406,0.881-0.908,0.881
			c-0.501,0-0.908-0.394-0.908-0.881C8.87,9.295,9.276,8.9,9.777,8.9z"/>
		<path fill="#787878" d="M8.408,12.285c0.501,0,0.908,0.396,0.908,0.883c0,0.486-0.406,0.882-0.908,0.882S7.5,13.654,7.5,13.168
			C7.5,12.681,7.907,12.285,8.408,12.285z"/>
	</g>
</g>
</svg>
